{
  "messages": [
    {
      "id": "80f08600-1b8f-11e8-9629-c7eca82aa7bd",
      "userId": "9e243930-83c9-11e9-8e0c-8f1a686f4ce4",
      "avatar": "https://resizing.flixster.com/kr0IphfLGZqni5JOWDS2P1-zod4=/280x250/v1.cjs0OTQ2NztqOzE4NDk1OzEyMDA7MjgwOzI1MA",
      "user": "Ruth",
      "text": "I don’t *** understand. It's the Panama accounts",
      "createdAt": "2020-07-16T19:48:12.936Z",
      "editedAt": ""
    },
    {
      "id": "80e00b40-1b8f-11e8-9629-c7eca82aa7bd",
      "userId": "533b5230-1b8f-11e8-9629-c7eca82aa7bd",
      "avatar": "https://resizing.flixster.com/EVAkglctn7E9B0hVKJrueplabuQ=/220x196/v1.cjs0NjYwNjtqOzE4NDk1OzEyMDA7MjIwOzE5Ng",
      "user": "Wendy",
      "text": "Tells exactly what happened.",
      "createdAt": "2020-07-16T19:48:42.481Z",
      "editedAt": "2020-07-16T19:48:47.481Z"
    },
    {
      "id": "80e03259-1b8f-11e8-9629-c7eca82aa7bd",
      "userId": "533b5230-1b8f-11e8-9629-c7eca82aa7bd",
      "avatar": "https://resizing.flixster.com/EVAkglctn7E9B0hVKJrueplabuQ=/220x196/v1.cjs0NjYwNjtqOzE4NDk1OzEyMDA7MjIwOzE5Ng",
      "user": "Wendy",
      "text": "You were doing your daily bank transfers and…",
      "createdAt": "2020-07-16T19:48:56.273Z",
      "editedAt": ""
    },
    {
      "id": "80e03258-1b8f-11e8-9629-c7eca82aa7bd",
      "userId": "9e243930-83c9-11e9-8e0c-8f1a686f4ce4",
      "avatar": "https://resizing.flixster.com/kr0IphfLGZqni5JOWDS2P1-zod4=/280x250/v1.cjs0OTQ2NztqOzE4NDk1OzEyMDA7MjgwOzI1MA",
      "user": "Ruth",
      "text": "Yes, like I’ve been doing every *** day without red *** flag",
      "createdAt": "2020-07-16T19:49:14.480Z",
      "editedAt": ""
    },
    {
      "id": "80e03257-1b8f-11e8-9629-c7eca82aa7bd",
      "userId": "9e243930-83c9-11e9-8e0c-8f1a686f4ce4",
      "avatar": "https://resizing.flixster.com/kr0IphfLGZqni5JOWDS2P1-zod4=/280x250/v1.cjs0OTQ2NztqOzE4NDk1OzEyMDA7MjgwOzI1MA",
      "user": "Ruth",
      "text": "There`s never been a *** problem.",
      "createdAt": "2020-07-16T19:48:28.769Z",
      "editedAt": ""
    },
    {
      "id": "80e03256-1b8f-11e8-9629-c7eca82aa7bd",
      "userId": "4b003c20-1b8f-11e8-9629-c7eca82aa7bd",
      "avatar": "https://resizing.flixster.com/PCEX63VBu7wVvdt9Eq-FrTI6d_4=/300x300/v1.cjs0MzYxNjtqOzE4NDk1OzEyMDA7MzQ5OzMxMQ",
      "user": "Helen",
      "text": "Why this account?",
      "createdAt": "2020-07-16T19:49:33.195Z",
      "editedAt": ""
    },
    {
      "id": "80e03255-1b8f-11e8-9629-c7eca82aa7bd",
      "userId": "9e243930-83c9-11e9-8e0c-8f1a686f4ce4",
      "avatar": "https://resizing.flixster.com/kr0IphfLGZqni5JOWDS2P1-zod4=/280x250/v1.cjs0OTQ2NztqOzE4NDk1OzEyMDA7MjgwOzI1MA",
      "user": "Ruth",
      "text": "I don`t *** know! I don`t know!",
      "createdAt": "2020-07-16T19:49:45.821Z",
      "editedAt": ""
    },
    {
      "id": "80e03254-1b8f-11e8-9629-c7eca82aa7bd",
      "userId": "5328dba1-1b8f-11e8-9629-c7eca82aa7bd",
      "avatar": "https://www.aceshowbiz.com/images/photo/tom_pelphrey.jpg",
      "user": "Ben",
      "text": "What the ** is a red flag anyway?",
      "createdAt": "2020-07-16T19:50:07.708Z",
      "editedAt": ""
    },
    {
      "id": "80e03253-1b8f-11e8-9629-c7eca82aa7bd",
      "userId": "4b003c20-1b8f-11e8-9629-c7eca82aa7bd",
      "avatar": "https://resizing.flixster.com/PCEX63VBu7wVvdt9Eq-FrTI6d_4=/300x300/v1.cjs0MzYxNjtqOzE4NDk1OzEyMDA7MzQ5OzMxMQ",
      "user": "Helen",
      "text": "You said you could handle things",
      "createdAt": "2020-07-16T19:53:02.483Z",
      "editedAt": ""
    },
    {
      "id": "80e03252-1b8f-11e8-9629-c7eca82aa7bd",
      "userId": "9e243930-83c9-11e9-8e0c-8f1a686f4ce4",
      "avatar": "https://resizing.flixster.com/kr0IphfLGZqni5JOWDS2P1-zod4=/280x250/v1.cjs0OTQ2NztqOzE4NDk1OzEyMDA7MjgwOzI1MA",
      "user": "Ruth",
      "text": "I did what he taught me.",
      "createdAt": "2020-07-16T19:53:17.272Z",
      "editedAt": "2020-07-16T19:53:50.272Z"
    },
    {
      "id": "80e03251-1b8f-11e8-9629-c7eca82aa7bd",
      "userId": "9e243930-83c9-11e9-8e0c-8f1a686f4ce4",
      "avatar": "https://resizing.flixster.com/kr0IphfLGZqni5JOWDS2P1-zod4=/280x250/v1.cjs0OTQ2NztqOzE4NDk1OzEyMDA7MjgwOzI1MA",
      "user": "Ruth",
      "text": "it`s not my fucking fault!",
      "createdAt": "2020-07-16T19:53:49.171Z",
      "editedAt": ""
    },
    {
      "id": "80e03250-1b8f-11e8-9629-c7eca82aa7bd",
      "userId": "533b5230-1b8f-11e8-9629-c7eca82aa7bd",
      "avatar": "https://resizing.flixster.com/EVAkglctn7E9B0hVKJrueplabuQ=/220x196/v1.cjs0NjYwNjtqOzE4NDk1OzEyMDA7MjIwOzE5Ng",
      "user": "Wendy",
      "text": "Can you fix this? Can you fix it?",
      "createdAt": "2020-07-16T19:56:51.491Z",
      "editedAt": ""
    },
    {
      "id": "80e03249-1b8f-11e8-9629-c7eca82aa7bd",
      "userId": "4b003c20-1b8f-11e8-9629-c7eca82aa7bd",
      "avatar": "https://resizing.flixster.com/PCEX63VBu7wVvdt9Eq-FrTI6d_4=/300x300/v1.cjs0MzYxNjtqOzE4NDk1OzEyMDA7MzQ5OzMxMQ",
      "user": "Helen",
      "text": "Her best is gonna get us all killed.",
      "createdAt": "2020-07-16T19:57:07.965Z",
      "editedAt": "2020-07-16T19:57:15.965Z"
    },
    {
      "id": "80e03248-1b8f-11e8-9629-c7eca82aa7bd",
      "userId": "9e243930-83c9-11e9-8e0c-8f1a686f4ce4",
      "avatar": "https://resizing.flixster.com/kr0IphfLGZqni5JOWDS2P1-zod4=/280x250/v1.cjs0OTQ2NztqOzE4NDk1OzEyMDA7MjgwOzI1MA",
      "user": "Ruth",
      "text": "I don`t know how!",
      "createdAt": "2020-07-16T19:58:06.686Z",
      "editedAt": ""
    },
    {
      "id": "80e03247-1b8f-11e8-9629-c7eca82aa7bd",
      "userId": "9e243930-83c9-11e9-8e0c-8f1a686f4ce4",
      "avatar": "https://resizing.flixster.com/kr0IphfLGZqni5JOWDS2P1-zod4=/280x250/v1.cjs0OTQ2NztqOzE4NDk1OzEyMDA7MjgwOzI1MA",
      "user": "Ruth",
      "text": "it means that the accounts frozen that cause the feds might think that there’s a crime being committed.",
      "createdAt": "2020-07-16T19:52:04.375Z",
      "editedAt": ""
    },
    {
      "id": "80e03246-1b8f-11e8-9629-c7eca82aa7bd",
      "userId": "9e243930-83c9-11e9-8e0c-8f1a686f4ce4",
      "avatar": "https://resizing.flixster.com/kr0IphfLGZqni5JOWDS2P1-zod4=/280x250/v1.cjs0OTQ2NztqOzE4NDk1OzEyMDA7MjgwOzI1MA",
      "user": "Ruth",
      "text": "Like by me",
      "createdAt": "2020-07-16T19:52:15.334Z",
      "editedAt": ""
    },
    {
      "id": "80e03245-1b8f-11e8-9629-c7eca82aa7bd",
      "userId": "5328dba1-1b8f-11e8-9629-c7eca82aa7bd",
      "avatar": "https://www.aceshowbiz.com/images/photo/tom_pelphrey.jpg",
      "user": "Ben",
      "text": "Not hello",
      "createdAt": "2020-07-16T19:58:17.878Z",
      "editedAt": "2021-07-11T15:45:10.963Z"
    },
    {
      "id": "b9c30377-67c8-416c-9c66-00d1f43aa739",
      "userId": "9e243930-83c9-11e9-8e0c-8f1a686f4ce4",
      "avatar": "https://resizing.flixster.com/kr0IphfLGZqni5JOWDS2P1-zod4=/280x250/v1.cjs0OTQ2NztqOzE4NDk1OzEyMDA7MjgwOzI1MA",
      "user": "Ruth",
      "text": "Hello",
      "createdAt": "2021-07-13T17:36:29.912Z",
      "editedAt": ""
    },
    {
      "id": "1758dfa1-6772-48cd-abb1-0d0a8841a892",
      "userId": "9e243930-83c9-11e9-8e0c-8f1a686f4ce4",
      "avatar": "https://resizing.flixster.com/kr0IphfLGZqni5JOWDS2P1-zod4=/280x250/v1.cjs0OTQ2NztqOzE4NDk1OzEyMDA7MjgwOzI1MA",
      "user": "Ruth",
      "text": "Hello there",
      "createdAt": "2021-07-13T17:37:01.848Z",
      "editedAt": ""
    },
    {
      "id": "c0fed426-f2a6-4b2f-91a5-1f3d4b40852f",
      "userId": "9e243930-83c9-11e9-8e0c-8f1a686f4ce4",
      "avatar": "https://resizing.flixster.com/kr0IphfLGZqni5JOWDS2P1-zod4=/280x250/v1.cjs0OTQ2NztqOzE4NDk1OzEyMDA7MjgwOzI1MA",
      "user": "Ruth",
      "text": "One, two, three",
      "createdAt": "2021-07-13T17:39:42.060Z",
      "editedAt": ""
    },
    {
      "id": "ab96cc8f-7946-4bb3-b080-d0b4b8f04aa3",
      "userId": "9e243930-83c9-11e9-8e0c-8f1a686f4ce4",
      "avatar": "https://resizing.flixster.com/kr0IphfLGZqni5JOWDS2P1-zod4=/280x250/v1.cjs0OTQ2NztqOzE4NDk1OzEyMDA7MjgwOzI1MA",
      "user": "Ruth",
      "text": "Hello)",
      "createdAt": "2021-07-13T17:42:27.885Z",
      "editedAt": "2021-07-13T22:32:12.047Z"
    },
    {
      "id": "924b8cc7-ebca-49cf-8378-fe58d5c1c619",
      "userId": "533b5230-1b8f-11e8-9629-c7eca82aa7bd",
      "avatar": "https://resizing.flixster.com/EVAkglctn7E9B0hVKJrueplabuQ=/220x196/v1.cjs0NjYwNjtqOzE4NDk1OzEyMDA7MjIwOzE5Ng",
      "user": "Wendy",
      "text": "Hello",
      "createdAt": "2021-07-13T17:46:03.848Z",
      "editedAt": ""
    },
    {
      "id": "0186975d-f3bf-4f33-8c00-4e14925a9253",
      "userId": "9e243930-83c9-11e9-8e0c-8f1a686f4ce4",
      "avatar": "https://resizing.flixster.com/kr0IphfLGZqni5JOWDS2P1-zod4=/280x250/v1.cjs0OTQ2NztqOzE4NDk1OzEyMDA7MjgwOzI1MA",
      "user": "Ruth",
      "text": "Heeeeey)))",
      "createdAt": "2021-07-13T20:06:34.072Z",
      "editedAt": "2021-07-13T22:34:24.200Z"
    },
    {
      "id": "c5d20583-8b30-4834-83c2-625492cc60a7",
      "userId": "533b5230-1b8f-11e8-9629-c7eca82aa7bd",
      "avatar": "https://resizing.flixster.com/EVAkglctn7E9B0hVKJrueplabuQ=/220x196/v1.cjs0NjYwNjtqOzE4NDk1OzEyMDA7MjIwOzE5Ng",
      "user": "Wendy",
      "text": "Hello",
      "createdAt": "2021-07-13T20:06:56.905Z",
      "editedAt": ""
    },
    {
      "id": "4490aa1c-d4af-4275-a85a-ba9f6b8bc02a",
      "userId": "9e243930-83c9-11e9-8e0c-8f1a686f4ce4",
      "avatar": "https://resizing.flixster.com/kr0IphfLGZqni5JOWDS2P1-zod4=/280x250/v1.cjs0OTQ2NztqOzE4NDk1OzEyMDA7MjgwOzI1MA",
      "user": "Ruth",
      "text": "Hey hey heyyyyyy)))",
      "createdAt": "2021-07-13T20:11:03.818Z",
      "editedAt": ""
    },
    {
      "id": "084e4a75-72a0-4f0b-95e5-b313daed2072",
      "userId": "9e243930-83c9-11e9-8e0c-8f1a686f4ce4",
      "avatar": "https://resizing.flixster.com/kr0IphfLGZqni5JOWDS2P1-zod4=/280x250/v1.cjs0OTQ2NztqOzE4NDk1OzEyMDA7MjgwOzI1MA",
      "user": "Ruth",
      "text": "How's your day, sweetie?))",
      "createdAt": "2021-07-13T20:11:22.526Z",
      "editedAt": "2021-07-13T22:32:38.039Z"
    },
    {
      "id": "efde2b3c-c8ce-4617-83a0-385f2e6bdb70",
      "userId": "5328dba1-1b8f-11e8-9629-c7eca82aa7bd",
      "avatar": "https://www.aceshowbiz.com/images/photo/tom_pelphrey.jpg",
      "user": "Ben",
      "text": "Another one!",
      "createdAt": "2021-07-14T03:51:04.782Z",
      "editedAt": ""
    },
    {
      "id": "1667c2cc-c07a-4b8e-b3ee-094e0fcef13a",
      "userId": "5328dba1-1b8f-11e8-9629-c7eca82aa7bd",
      "avatar": "https://www.aceshowbiz.com/images/photo/tom_pelphrey.jpg",
      "user": "Ben",
      "text": "Server finally works!",
      "createdAt": "2021-07-14T06:09:38.037Z",
      "editedAt": ""
    }
  ],
  "users": [
    {
      "id": "80e03247-1b8f-11e8-9629-c7eca82aa7bd",
      "avatar": null,
      "name": "admin",
      "password": "admin",
      "role": "admin"
    },
    {
      "id": "5328dba1-1b8f-11e8-9629-c7eca82aa7bd",
      "avatar": "https://www.aceshowbiz.com/images/photo/tom_pelphrey.jpg",
      "name": "Ben",
      "password": "Ben",
      "role": "user"
    },
    {
      "id": "9e243930-83c9-11e9-8e0c-8f1a686f4ce4",
      "avatar": "https://resizing.flixster.com/kr0IphfLGZqni5JOWDS2P1-zod4=/280x250/v1.cjs0OTQ2NztqOzE4NDk1OzEyMDA7MjgwOzI1MA",
      "name": "Ruth",
      "password": "Ruth",
      "role": "user"
    },
    {
      "id": "4b003c20-1b8f-11e8-9629-c7eca82aa7bd",
      "avatar": "https://resizing.flixster.com/PCEX63VBu7wVvdt9Eq-FrTI6d_4=/300x300/v1.cjs0MzYxNjtqOzE4NDk1OzEyMDA7MzQ5OzMxMQ",
      "name": "Helen",
      "password": "Helen",
      "role": "user"
    },
    {
      "id": "533b5230-1b8f-11e8-9629-c7eca82aa7bd",
      "avatar": "https://resizing.flixster.com/EVAkglctn7E9B0hVKJrueplabuQ=/220x196/v1.cjs0NjYwNjtqOzE4NDk1OzEyMDA7MjIwOzE5Ng",
      "name": "Wendy",
      "password": "Wendy",
      "role": "user"
    },
    {
      "id": "924b8cc7-ebca-49cf-8378-fe58d5c1c619",
      "avatar": "",
      "name": "user",
      "password": "user",
      "role": "user"
    }
  ]
}